<?xml version="1.0" encoding="UTF-8" standalone="no"?>
<svg
   width="16"
   height="16"
   version="1.1"
   id="svg10"
   sodipodi:docname="utilities-wifi-qrcode-symbolic.svg"
   inkscape:version="1.2.2 (b0a8486541, 2022-12-01)"
   inkscape:export-filename="/Hackering/My_Project/GShell_Extensions/gnome-shell-extension-wifiqrcode/wifiqrcode@glerro.gnome.gitlab.io/icons/utilities-looking-glass-symbolic.png"
   inkscape:export-xdpi="1536"
   inkscape:export-ydpi="1536"
   xmlns:inkscape="http://www.inkscape.org/namespaces/inkscape"
   xmlns:sodipodi="http://sodipodi.sourceforge.net/DTD/sodipodi-0.dtd"
   xmlns="http://www.w3.org/2000/svg"
   xmlns:svg="http://www.w3.org/2000/svg"
   xmlns:rdf="http://www.w3.org/1999/02/22-rdf-syntax-ns#"
   xmlns:cc="http://creativecommons.org/ns#"
   xmlns:dc="http://purl.org/dc/elements/1.1/">
  <metadata
     id="metadata16">
    <rdf:RDF>
      <cc:Work
         rdf:about="">
        <dc:format>image/svg+xml</dc:format>
        <dc:type
           rdf:resource="http://purl.org/dc/dcmitype/StillImage" />
        <dc:creator>
          <cc:Agent>
            <dc:title>Gianni Lerro &lt;glerro@pm.me&gt;</dc:title>
          </cc:Agent>
        </dc:creator>
        <cc:license
           rdf:resource="http://creativecommons.org/licenses/by-sa/4.0/" />
      </cc:Work>
      <cc:License
         rdf:about="http://creativecommons.org/licenses/by-sa/4.0/">
        <cc:permits
           rdf:resource="http://creativecommons.org/ns#Reproduction" />
        <cc:permits
           rdf:resource="http://creativecommons.org/ns#Distribution" />
        <cc:requires
           rdf:resource="http://creativecommons.org/ns#Notice" />
        <cc:requires
           rdf:resource="http://creativecommons.org/ns#Attribution" />
        <cc:permits
           rdf:resource="http://creativecommons.org/ns#DerivativeWorks" />
        <cc:requires
           rdf:resource="http://creativecommons.org/ns#ShareAlike" />
      </cc:License>
    </rdf:RDF>
  </metadata>
  <defs
     id="defs14" />
  <sodipodi:namedview
     pagecolor="#ffffff"
     bordercolor="#666666"
     borderopacity="1"
     objecttolerance="10"
     gridtolerance="10"
     guidetolerance="10"
     inkscape:pageopacity="0"
     inkscape:pageshadow="2"
     inkscape:window-width="1619"
     inkscape:window-height="981"
     id="namedview12"
     showgrid="false"
     inkscape:zoom="32"
     inkscape:cx="9.0625"
     inkscape:cy="8.34375"
     inkscape:window-x="61"
     inkscape:window-y="32"
     inkscape:window-maximized="1"
     inkscape:current-layer="g21158"
     inkscape:snap-smooth-nodes="true"
     showguides="true"
     inkscape:guide-bbox="true"
     inkscape:pagecheckerboard="0"
     inkscape:showpageshadow="0"
     inkscape:deskcolor="#d1d1d1" />
  <g
     id="g8"
     fill="#474747"
     color="#bebebe">
    <g
       id="g21167"
       transform="matrix(1.6637482,0,0,1.6637482,5.8844626,-8.4576428)">
      <g
         id="g21158"
         transform="translate(-16.543531,8.9676376)">
        <path
           sodipodi:nodetypes="cccsc"
           inkscape:connector-curvature="0"
           id="path4178"
           d="m 15.486186,-0.2856642 c -0.225372,0.5258811 1.652768,2.77966 2.328897,2.77966 0.676129,0 2.554268,-2.2537789 2.32889,-2.77966 -0.450751,-0.4507507 -1.051756,-0.9766317 -2.32889,-0.9766317 -1.277134,0 -1.87814,0.525881 -2.328897,0.9766317 z"
           style="display:inline;fill:#bebebe;fill-opacity:0.364706;fill-rule:nonzero;stroke:none;stroke-width:0.0147857;stroke-linecap:butt;stroke-linejoin:miter;stroke-miterlimit:4;stroke-dasharray:none;stroke-opacity:1" />
        <path
           d="m 17.617909,-1.011135 c 0.821474,-0.059161 1.661968,0.2481883 2.248261,0.8270577 0.07682,0.079083 0.0668,0.2174244 -0.01424,0.2898992 -0.07444,0.087752 -0.223507,0.089303 -0.300329,0.00382 -0.501548,-0.4828528 -1.209678,-0.7439514 -1.904995,-0.6920209 -0.577633,0.037162 -1.137203,0.2859727 -1.556354,0.6844833 -0.03728,0.0381 -0.08488,0.069381 -0.139691,0.072063 -0.137307,0.016101 -0.264289,-0.1274028 -0.234656,-0.2617122 0.0084,-0.048214 0.03933,-0.088374 0.07474,-0.1204875 0.490715,-0.469846 1.149491,-0.7584043 1.82727,-0.8031039 z"
           id="path5"
           inkscape:connector-curvature="0"
           style="fill:#474747;fill-opacity:1;stroke:none;stroke-width:0.00876464;stroke-opacity:1" />
        <path
           d="m 17.597575,-0.2055507 c 0.629354,-0.068452 1.282871,0.1635307 1.728238,0.6132443 0.06958,0.079495 0.06091,0.2094837 -0.01641,0.2809243 -0.07052,0.086305 -0.212674,0.095999 -0.29259,0.01774 -0.285148,-0.2811171 -0.670652,-0.4596177 -1.07039,-0.488839 -0.485447,-0.040265 -0.981412,0.1439154 -1.327063,0.4859554 -0.07971,0.084246 -0.22817,0.074657 -0.299908,-0.01497 -0.07733,-0.072983 -0.08373,-0.2064861 -0.0095,-0.2838078 0.342557,-0.34275 0.805794,-0.5607967 1.287622,-0.6102468 z"
           id="path7"
           inkscape:connector-curvature="0"
           style="fill:#474747;fill-opacity:1;stroke:none;stroke-width:0.00876464;stroke-opacity:1" />
        <path
           d="m 17.690594,0.589297 c 0.397161,-0.039432 0.807758,0.1126431 1.084125,0.4002723 0.07567,0.078768 0.06691,0.2143305 -0.01281,0.2872173 -0.07237,0.087348 -0.217424,0.093238 -0.296087,0.011359 -0.155782,-0.1599109 -0.371568,-0.2609935 -0.594979,-0.2731763 -0.253552,-0.018073 -0.51011,0.082081 -0.690162,0.2602659 -0.04429,0.049774 -0.110058,0.080328 -0.17737,0.072387 -0.1563,-0.010956 -0.264806,-0.2196068 -0.157133,-0.344836 0.217425,-0.2358039 0.52622,-0.3818929 0.844412,-0.4134894 z"
           id="path9"
           inkscape:connector-curvature="0"
           style="fill:#474747;fill-opacity:1;stroke:none;stroke-width:0.00876464;stroke-opacity:1" />
        <path
           d="m 17.751815,1.3314955 c 0.255936,-0.042947 0.515685,0.168395 0.52395,0.4279247 0.02374,0.2544901 -0.200912,0.4959823 -0.456313,0.4903904 -0.229608,0.00796 -0.442396,-0.1825236 -0.462528,-0.4108863 -0.03274,-0.2397304 0.154749,-0.4797589 0.394891,-0.5074288 z"
           id="path11-4"
           inkscape:connector-curvature="0"
           style="fill:#474747;fill-opacity:1;stroke:none;stroke-width:0.00876464;stroke-opacity:1" />
      </g>
      <path
         id="path4-36"
         style="fill:#474747;fill-opacity:1;stroke-width:0.219512"
         d="m -23.974609,4.2734375 v 0.21875 0.2207031 0.21875 0.21875 0.2207032 0.21875 0.2207031 h 0.220703 0.21875 0.21875 0.220703 0.21875 0.220703 0.21875 v -0.2207031 -0.21875 -0.2207032 -0.21875 -0.21875 -0.2207031 -0.21875 h -0.21875 -0.220703 -0.21875 -0.220703 -0.21875 -0.21875 z m 1.755859,0 v 0.21875 h 0.220703 0.21875 v -0.21875 h -0.21875 z m 0.878906,0 v 0.21875 h 0.21875 0.220703 0.21875 v -0.21875 h -0.21875 -0.220703 z m 0,0.21875 h -0.21875 v 0.2207031 h 0.21875 z m -0.21875,0.2207031 h -0.220703 v 0.21875 h 0.220703 z m -0.220703,0.21875 h -0.21875 v 0.21875 h -0.220703 v 0.2207032 0.21875 0.2207031 h 0.220703 v -0.2207031 -0.21875 h 0.21875 V 5.1503906 Z m 0,0.4394532 v 0.21875 0.2207031 h -0.21875 v 0.21875 0.21875 h 0.21875 v -0.21875 h 0.220703 v -0.21875 -0.2207031 h 0.21875 v 0.2207031 0.21875 h -0.21875 v 0.21875 h 0.21875 0.21875 0.220703 V 6.46875 h 0.21875 V 6.6875 h 0.220703 v 0.2207031 h 0.21875 0.21875 v 0.025391 c 0.0708,-0.00983 0.144633,-0.019456 0.220704,-0.025391 6.48e-4,-5.05e-5 0.0013,5.03e-5 0.002,0 0.07008,-0.00543 0.142007,-0.00987 0.216797,-0.011719 V 6.6875 h -0.21875 -0.220704 V 6.46875 h -0.21875 V 6.2480469 h 0.21875 v -0.21875 h -0.21875 -0.21875 v -0.21875 h -0.220703 v 0.21875 h -0.21875 -0.220703 v -0.21875 -0.2207031 h 0.220703 v 0.2207031 h 0.21875 V 5.5898438 h 0.220703 v -0.21875 -0.2207032 -0.21875 -0.21875 h -0.220703 v 0.21875 h -0.21875 v 0.21875 0.2207032 h -0.220703 v -0.2207032 -0.21875 h -0.21875 v 0.21875 h -0.21875 v 0.2207032 z m 0.658203,-0.4394532 h 0.220703 v -0.21875 h -0.220703 z m 0.660156,0.6582032 v 0.2207031 h 0.21875 V 5.5898438 Z m 0,1.3183593 h -0.220703 V 6.6875 h -0.21875 v 0.2207031 h -0.220703 V 7.1269531 7.3125 c 0.187422,-0.1147993 0.402832,-0.2152364 0.660156,-0.2890625 z M -20.900391,6.6875 V 6.46875 h -0.220703 V 6.6875 Z m -0.658203,-0.4394531 h -0.220703 V 6.46875 h -0.21875 V 6.2480469 H -22.21875 V 6.46875 h -0.21875 -0.21875 V 6.6875 h 0.21875 v 0.2207031 h 0.21875 v 0.21875 h -0.21875 v 0.21875 h 0.21875 0.220703 v 0.2207031 0.21875 0.21875 0.2207032 h 0.21875 0.0098 c -0.05363,-0.1493888 -0.06808,-0.272133 -0.0332,-0.3535156 0.02801,-0.028012 0.05859,-0.057489 0.08789,-0.085938 h -0.06445 v -0.21875 h 0.220703 0.08789 c 0.09129,-0.076286 0.188023,-0.1505717 0.296875,-0.2207031 h -0.166016 v -0.21875 h -0.21875 v 0.21875 h -0.220703 v -0.21875 h -0.21875 v -0.21875 h 0.21875 0.220703 0.21875 V 6.6875 h -0.21875 V 6.46875 Z m -0.439453,1.9765625 h -0.220703 v 0.21875 h 0.220703 z M -22.4375,7.3457031 h -0.21875 -0.220703 -0.21875 -0.220703 v -0.21875 h -0.21875 v 0.21875 0.2207031 h 0.21875 0.220703 0.21875 v 0.21875 0.21875 h 0.220703 0.21875 v -0.21875 h -0.21875 v -0.21875 h 0.21875 z m 0,0.2207031 v 0.21875 h 0.21875 v -0.21875 z m -1.097656,-0.4394531 v -0.21875 h -0.21875 V 6.6875 h -0.220703 v 0.2207031 0.21875 0.21875 h 0.220703 v -0.21875 z M -23.753906,6.6875 h 0.21875 V 6.46875 6.2480469 h 0.21875 0.220703 0.21875 0.220703 0.21875 0.21875 v -0.21875 h -0.21875 -0.21875 -0.220703 -0.21875 -0.220703 -0.21875 -0.21875 v 0.21875 h -0.220703 V 6.46875 h 0.220703 z m 0.21875,0 v 0.2207031 h 0.21875 V 6.6875 Z m 0.21875,0 h 0.220703 V 6.46875 h -0.220703 z m 0.878906,0.4394531 v -0.21875 h -0.21875 -0.220703 -0.21875 v 0.21875 h 0.21875 0.220703 z m 2.414062,-2.8535156 v 0.21875 h 0.220704 v 0.2207031 h 0.21875 0.21875 V 4.4921875 h 0.220703 v -0.21875 h -0.220703 -0.21875 -0.21875 z m 0.878907,0.21875 v 0.2207031 h 0.21875 V 4.4921875 Z m 0.21875,0 h 0.220703 v -0.21875 h -0.220703 z m 0.220703,0 v 0.2207031 h 0.21875 V 4.4921875 Z m 0,0.2207031 h -0.220703 v 0.21875 0.21875 h 0.220703 v 0.2207032 h 0.21875 v -0.2207032 -0.21875 h -0.21875 z m 0.21875,0.6582032 v 0.21875 h 0.21875 v -0.21875 z m 0.21875,0 h 0.220703 V 5.1503906 h -0.220703 z m 0.220703,0 v 0.21875 h 0.21875 v 0.2207031 0.21875 h 0.220703 v -0.21875 -0.2207031 h 0.21875 v -0.21875 h -0.21875 V 5.1503906 h -0.220703 v 0.2207032 z m 0.658203,0 h 0.21875 0.220703 0.21875 V 5.1503906 h -0.21875 v -0.21875 h -0.220703 v 0.21875 h -0.21875 z m 0.21875,-0.4394532 v -0.21875 h -0.21875 v -0.2207031 -0.21875 h -0.21875 -0.220703 v 0.21875 h -0.21875 v 0.2207031 h -0.220703 v 0.21875 h 0.220703 0.21875 v -0.21875 h 0.220703 v 0.21875 h 0.21875 z m -0.21875,0.6582032 v 0.2207031 h 0.21875 V 5.5898438 Z m -0.21875,0.4394531 v 0.21875 h 0.21875 v -0.21875 z m 0.21875,0.21875 V 6.46875 h 0.21875 0.220703 V 6.6875 h -0.220703 v 0.2207031 0.21875 h 0.220703 v -0.21875 h 0.21875 V 6.6875 h 0.220703 V 6.46875 h 0.21875 0.21875 V 6.6875 h 0.220704 V 6.46875 6.2480469 6.0292969 h -0.220704 -0.21875 v 0.21875 h -0.21875 -0.220703 -0.21875 v -0.21875 h -0.220703 v 0.21875 z m 0.439453,-0.21875 h 0.21875 v -0.21875 -0.2207031 h -0.21875 V 5.8105469 Z M -15.851562,6.6875 v 0.2207031 0.21875 h -0.220704 -0.21875 -0.21875 -0.220703 v 0.21875 h -0.21875 v 0.2207031 0.21875 0.21875 h -0.179687 c -0.0073,0.1158321 -0.06252,0.2680567 -0.148438,0.4394532 h 0.107422 v -0.21875 h 0.220703 v 0.21875 0.2207031 h 0.21875 V 8.4433594 8.2246094 8.0039062 h 0.220703 v -0.21875 h -0.220703 v -0.21875 h 0.220703 V 7.3457031 h 0.21875 0.21875 0.220704 v 0.2207031 h 0.21875 v -0.2207031 -0.21875 h 0.21875 v -0.21875 h -0.21875 V 6.6875 Z m 0.4375,0.2207031 h 0.220703 0.21875 V 6.6875 h -0.21875 -0.220703 z m -0.4375,0.6582031 h -0.220704 v 0.21875 h 0.220704 z m -0.220704,0.21875 h -0.21875 v 0.21875 h -0.21875 v 0.2207032 h 0.21875 0.21875 v 0.21875 0.2207031 h 0.220704 0.21875 V 8.4433594 h 0.21875 v -0.21875 h -0.21875 -0.21875 V 8.0039062 h -0.220704 z m 0.658204,0.4394532 h 0.220703 0.21875 v -0.2207032 -0.21875 h -0.21875 v 0.21875 h -0.220703 z m 0,-0.2207032 v -0.21875 h -0.21875 v 0.21875 z m -0.21875,0.6601563 v 0.21875 0.21875 h 0.21875 0.220703 0.21875 v -0.21875 -0.21875 h -0.21875 v 0.21875 h -0.220703 v -0.21875 z m 0,0.4375 h -0.21875 v 0.2207031 h -0.220704 v 0.21875 h 0.220704 v 0.2207032 h -0.220704 -0.21875 -0.21875 v -0.2207032 -0.21875 h -0.220703 V 9.1015625 h 0.220703 v 0.2207031 h 0.21875 V 9.1015625 h 0.21875 0.220704 v -0.21875 h -0.220704 -0.21875 -0.21875 v -0.21875 h -0.220703 v 0.21875 h -0.21875 -0.220703 v 0.21875 h 0.220703 v 0.2207031 h -0.220703 v 0.21875 h 0.220703 0.21875 v 0.2207032 0.21875 h 0.220703 v 0.2187502 0.220703 h 0.21875 v 0.21875 h -0.21875 -0.220703 -0.21875 v -0.21875 h 0.21875 V 10.199219 9.9804688 h -0.21875 v 0.2187502 h -0.220703 V 9.9804688 h -0.21875 -0.21875 v 0.2187502 h 0.21875 v 0.220703 h 0.21875 v 0.21875 0.220703 h 0.220703 0.21875 v 0.21875 h -0.21875 v 0.21875 0.220703 0.21875 h -0.220703 v 0.21875 h -0.21875 v -0.21875 h 0.21875 v -0.21875 h -0.21875 v -0.220703 h -0.21875 -0.220703 v -0.21875 h 0.220703 v -0.21875 h -0.220703 v -0.220703 h -0.21875 v 0.220703 h -0.220703 v -0.220703 h 0.220703 v -0.21875 h -0.220703 -0.21875 -0.21875 v -0.205078 c -0.07567,0.06556 -0.148913,0.124642 -0.220703,0.177734 v 0.02734 0.21875 h 0.220703 0.21875 v 0.220703 h -0.21875 -0.220703 v 0.21875 h -0.21875 -0.220703 v -0.21875 h -0.21875 -0.21875 v -0.220703 h -0.220704 v 0.220703 h -0.21875 -0.21875 -0.220703 v -0.220703 h -0.21875 v -0.21875 h -0.220703 v -0.220703 h -0.21875 V 9.9804688 h -0.21875 v 0.2187502 0.220703 0.21875 h 0.21875 0.21875 v 0.220703 h 0.220703 v 0.21875 h 0.21875 0.220703 v 0.21875 h 0.21875 v 0.220703 h -0.21875 v 0.21875 h 0.21875 v 0.21875 h -0.21875 v -0.21875 h -0.220703 v -0.21875 -0.220703 h -0.21875 v -0.21875 h -0.220703 v 0.21875 h -0.21875 v -0.21875 h -0.21875 -0.220703 v 0.21875 h -0.21875 -0.220703 v 0.220703 0.21875 0.21875 0.220703 0.21875 0.220703 0.21875 0.21875 h 0.220703 v 0.220704 h 0.21875 v -0.220704 -0.21875 -0.21875 h -0.21875 v -0.220703 -0.21875 -0.220703 h 0.21875 v -0.21875 h -0.21875 v -0.21875 h 0.21875 v 0.21875 h 0.220703 0.21875 0.21875 0.220703 v 0.21875 0.220703 h 0.21875 v 0.21875 h 0.220703 v -0.21875 h 0.21875 v 0.21875 h 0.21875 v -0.21875 -0.220703 h 0.220704 v -0.21875 h -0.220704 v -0.21875 -0.220703 h 0.220704 0.21875 v 0.220703 h 0.21875 0.220703 v 0.21875 0.21875 h -0.220703 -0.21875 v 0.220703 h -0.21875 v 0.21875 h -0.220704 v 0.220703 h -0.21875 v 0.21875 h 0.21875 v 0.21875 0.220704 h 0.220704 0.21875 v -0.220704 h 0.21875 v -0.21875 h 0.220703 v -0.21875 h -0.220703 v -0.220703 h 0.220703 v 0.220703 h 0.21875 0.220703 v -0.220703 h 0.21875 v -0.21875 h -0.21875 -0.220703 v -0.220703 -0.21875 h 0.220703 v -0.21875 -0.220703 -0.21875 h 0.21875 0.21875 0.220703 v 0.21875 0.220703 h 0.21875 v 0.21875 h 0.220703 v 0.21875 h -0.220703 v 0.220703 h 0.220703 0.21875 0.21875 0.220703 v 0.21875 h 0.21875 v 0.220703 h -0.21875 v -0.220703 h -0.220703 -0.21875 v 0.220703 h 0.21875 v 0.21875 h 0.220703 v 0.21875 h 0.21875 v -0.21875 h 0.220703 v 0.21875 0.220704 h 0.21875 0.21875 0.220704 0.21875 0.21875 v -0.220704 h -0.21875 v -0.21875 -0.21875 h -0.21875 -0.220704 v -0.220703 h 0.220704 v -0.21875 h 0.21875 v -0.220703 h -0.21875 v -0.21875 -0.21875 -0.220703 h -0.220704 v -0.21875 -0.21875 h 0.220704 0.21875 v 0.21875 h 0.21875 0.220703 v -0.21875 h 0.21875 v -0.220703 -0.21875 h -0.21875 -0.220703 -0.21875 v -0.220703 h -0.21875 V 9.9804688 h 0.21875 v -0.21875 h 0.21875 v 0.21875 h 0.220703 0.21875 v -0.21875 h -0.21875 v -0.2207032 -0.21875 h -0.220703 v 0.21875 h -0.21875 v -0.21875 z m 0,1.9765625 h -0.21875 v 0.21875 h 0.21875 z m 0,0.21875 v 0.220703 0.21875 h 0.21875 0.220703 0.21875 v -0.21875 h -0.21875 -0.220703 v -0.220703 z m 0,0.878906 v 0.21875 h 0.21875 v -0.21875 z m 0.21875,0.21875 v 0.220703 h 0.220703 v -0.220703 z m 0.220703,0 h 0.21875 v -0.21875 -0.220703 h -0.21875 v 0.220703 z m -0.220703,0.658203 h 0.220703 v -0.21875 h -0.220703 z m -1.535157,0 h -0.220703 v 0.220704 h 0.220703 z m -0.220703,0 v -0.21875 h -0.21875 v 0.21875 z m -0.21875,0 h -0.21875 v 0.220704 h 0.21875 z m -0.439453,-1.097656 v -0.21875 h -0.21875 v 0.21875 z m -0.21875,0 h -0.220703 v 0.220703 h 0.220703 z m -1.097656,0.878906 v 0.21875 h 0.21875 v 0.220704 h 0.220703 0.21875 0.21875 0.220703 0.21875 v -0.220704 h -0.21875 v -0.21875 h 0.21875 v -0.21875 h -0.21875 v -0.220703 h -0.220703 v 0.220703 h -0.21875 v 0.21875 h 0.21875 v 0.21875 h -0.21875 -0.21875 v -0.21875 h -0.220703 z m 1.316406,-0.21875 h 0.220703 v -0.220703 h -0.220703 z m -2.414063,0 v -0.220703 h -0.21875 v 0.220703 z m -1.537109,-0.660156 v 0.220703 0.21875 h 0.220703 v -0.21875 -0.220703 z m 0.220703,0.439453 v 0.220703 h 0.21875 v -0.220703 z m 0.21875,0 h 0.21875 v -0.21875 -0.220703 h -0.21875 v 0.220703 z m 0.21875,0 v 0.220703 h -0.21875 v 0.21875 h 0.21875 v 0.21875 h -0.21875 -0.21875 v 0.220704 h 0.21875 0.21875 0.220703 0.21875 0.220703 0.21875 v -0.220704 h -0.21875 -0.220703 v -0.21875 -0.21875 h -0.21875 v -0.220703 z m -1.097656,-1.097656 v -0.21875 h -0.21875 v 0.21875 z m -0.21875,0 h -0.21875 v 0.220703 h 0.21875 z m 0,-0.21875 v -0.21875 h -0.21875 v 0.21875 z m -0.21875,-0.21875 v -0.220703 h -0.220703 -0.21875 -0.220703 v 0.220703 h -0.21875 v 0.21875 0.21875 h 0.21875 v -0.21875 h 0.220703 v -0.21875 h 0.21875 z m -0.439453,0.21875 v 0.21875 h -0.220703 v 0.220703 h 0.220703 0.21875 v -0.220703 -0.21875 z m -0.439453,-0.21875 v -0.220703 -0.21875 -0.220703 -0.2187502 -0.21875 h -0.21875 v 0.21875 h -0.220703 v 0.2187502 0.220703 h 0.220703 v 0.21875 h -0.220703 v 0.220703 0.21875 0.21875 0.220703 h 0.220703 v -0.220703 -0.21875 -0.21875 z m 0.878906,-0.220703 h 0.21875 v 0.220703 h 0.21875 v -0.220703 h 0.220703 v 0.220703 h 0.21875 0.220703 v -0.220703 h -0.220703 v -0.21875 -0.220703 h -0.21875 v 0.220703 h -0.220703 v -0.220703 h 0.220703 V 9.9804688 h -0.220703 v -0.21875 h -0.21875 v 0.21875 h -0.21875 v 0.2187502 h 0.21875 v 0.220703 h -0.21875 z M -22.4375,9.7617188 V 9.5410156 h -0.21875 -0.220703 -0.21875 v -0.21875 -0.2207031 h 0.21875 v 0.2207031 h 0.220703 0.21875 V 9.1015625 h -0.21875 v -0.21875 h -0.220703 -0.21875 -0.220703 v 0.21875 0.2207031 h -0.21875 V 9.1015625 h -0.21875 v 0.2207031 0.21875 h 0.21875 0.21875 v 0.2207032 h 0.220703 0.21875 0.220703 z m -1.316406,-0.6601563 v -0.21875 h 0.21875 0.21875 v -0.21875 h 0.220703 V 8.4433594 h -0.220703 -0.21875 v -0.21875 -0.2207032 h 0.21875 v 0.2207032 h 0.220703 v -0.2207032 -0.21875 h -0.220703 -0.21875 -0.21875 v 0.21875 0.2207032 0.21875 0.2207031 h -0.220703 v 0.21875 0.21875 z m 1.097656,-0.21875 h 0.21875 v 0.21875 h 0.21875 v -0.21875 h 0.220703 v -0.21875 h -0.220703 -0.21875 -0.21875 z m 0.4375,0.21875 v 0.2207031 0.21875 h 0.220703 0.21875 v 0.2207032 h 0.220703 v -0.2207032 -0.21875 h -0.220703 V 9.1015625 h -0.21875 z m 0.439453,0 h 0.220703 v -0.21875 h 0.148438 c -0.104118,-0.1547326 -0.193286,-0.3028656 -0.261719,-0.4394531 h -0.107422 v 0.2207031 0.21875 z m 0.439453,0.8789063 h 0.21875 v 0.2187502 h 0.220703 0.21875 V 9.9804688 h 0.185547 c -0.07128,-0.070181 -0.142197,-0.1426676 -0.21289,-0.21875 h -0.191407 -0.220703 V 9.5410156 h -0.21875 v 0.2207032 z m 0.21875,-0.4394532 h 0.214844 c -0.06181,-0.071917 -0.121036,-0.1452613 -0.179688,-0.21875 h -0.03516 z m 0,-0.21875 v -0.042969 c -0.0765,-0.097305 -0.150791,-0.1946065 -0.21875,-0.2910157 v 0.1132813 0.2207031 z m 0.439453,0.8769534 v 0.220703 h 0.220703 v 0.21875 h 0.21875 0.21875 v -0.21875 h -0.21875 v -0.205078 c -0.07207,-0.06242 -0.145123,-0.129807 -0.21875,-0.201172 v 0.185547 z m 0.658203,0.220703 h 0.03906 c -0.01269,-0.0091 -0.02621,-0.01977 -0.03906,-0.0293 z m 1.097657,0.439453 v -0.220703 h -0.21875 v 0.220703 z m -0.21875,-0.220703 v -0.101563 c -0.08764,0.04964 -0.170497,0.0852 -0.242188,0.101563 h 0.02148 z m 1.097656,-0.21875 h 0.21875 v 0.21875 h 0.220703 0.21875 v -0.21875 h -0.21875 v -0.220703 h -0.220703 V 9.9804688 h -0.21875 -0.220703 V 9.7910156 c -0.140221,0.1492555 -0.281601,0.2871254 -0.419922,0.4082034 h 0.201172 0.21875 0.220703 z m 0.21875,-0.4394532 h 0.220703 v -0.21875 h -0.220703 z m 0.220703,-0.21875 h 0.21875 V 9.5410156 h -0.21875 z m 0,-0.2207032 v -0.21875 -0.2207031 h -0.08594 c -0.05423,0.073564 -0.109294,0.1471703 -0.167969,0.2207031 h 0.0332 v 0.21875 z m 0,-0.4394531 h 0.21875 v -0.21875 h -0.15039 c -0.0229,0.03402 -0.04411,0.067115 -0.06836,0.1015625 z m 0.21875,-0.21875 h 0.21875 v -0.21875 h -0.21875 z m 0,0.21875 v 0.2207031 h 0.21875 V 9.1015625 Z m 0.21875,0.8789063 h 0.220703 v -0.21875 h -0.220703 z m 0.660156,-1.3164063 h 0.21875 V 8.4433594 h -0.21875 z m 0.21875,-0.8789063 v -0.21875 h -0.21875 v 0.21875 z M -16.072266,6.6875 h -0.21875 -0.21875 v 0.2207031 h 0.21875 0.21875 z m -1.535156,-0.4394531 h -0.220703 V 6.46875 h -0.21875 -0.220703 -0.21875 V 6.6875 h 0.21875 v 0.2207031 h -0.21875 v 0.1152344 c 0.105077,0.030208 0.202656,0.065162 0.294922,0.1035156 h 0.144531 v 0.064453 c 0.09741,0.047552 0.187237,0.1000354 0.271484,0.1542969 h 0.167969 v -0.21875 h -0.220703 V 6.9082031 6.6875 h 0.220703 V 6.46875 Z m 0,0.8789062 h 0.21875 v -0.21875 h -0.21875 z m -0.878906,-0.21875 V 6.6875 h -0.21875 V 6.46875 6.2480469 h -0.220703 -0.21875 V 6.46875 6.6875 h -0.220703 v 0.2089844 c 0.07512,0.00185 0.148381,0.00626 0.21875,0.011719 6.48e-4,5.03e-5 0.0013,-5.05e-5 0.002,0 0.07563,0.0059 0.14833,0.01369 0.21875,0.023437 v -0.023437 h 0.220703 z m -0.21875,-0.6601562 h 0.21875 0.21875 v -0.21875 h -0.21875 -0.21875 z m 0.658203,-0.6582031 h -0.220703 v 0.2207031 h 0.220703 z m -0.439453,0 h -0.21875 v 0.2207031 h 0.21875 z m -0.439453,-0.4394532 h -0.21875 v -0.21875 h -0.220703 -0.21875 v 0.21875 h -0.21875 v 0.2207032 h 0.21875 v 0.21875 0.2207031 h 0.21875 v -0.2207031 -0.21875 h 0.220703 0.21875 z m -0.658203,0.6601563 h -0.21875 v 0.21875 h 0.21875 z m -0.21875,0 v -0.2207031 -0.21875 h -0.220704 v 0.21875 0.2207031 z m 0,-0.6601563 v -0.21875 -0.21875 h -0.220704 -0.21875 v 0.21875 0.21875 h 0.21875 z m 2.632812,-0.8769531 v 0.21875 h 0.220703 0.21875 v -0.21875 h -0.21875 z m 0.660156,0 v 0.21875 0.2207031 0.21875 0.21875 0.2207032 0.21875 0.2207031 h 0.21875 0.21875 0.220704 0.21875 0.21875 0.220703 0.21875 v -0.2207031 -0.21875 -0.2207032 -0.21875 -0.21875 -0.2207031 -0.21875 h -0.21875 -0.220703 -0.21875 -0.21875 -0.220704 -0.21875 z m -7.24414,0.21875 h 0.21875 0.21875 0.220703 0.21875 0.220703 v 0.2207031 0.21875 0.21875 0.2207032 0.21875 h -0.220703 -0.21875 -0.220703 -0.21875 -0.21875 v -0.21875 -0.2207032 -0.21875 -0.21875 z m 7.46289,0 h 0.21875 0.220704 0.21875 0.21875 0.220703 v 0.2207031 0.21875 0.21875 0.2207032 0.21875 h -0.220703 -0.21875 -0.21875 -0.220704 -0.21875 v -0.21875 -0.2207032 -0.21875 -0.21875 z m -7.24414,0.2207031 v 0.21875 0.21875 0.2207032 h 0.21875 0.220703 0.21875 v -0.2207032 -0.21875 -0.21875 h -0.21875 -0.220703 z m 7.46289,0 v 0.21875 0.21875 0.2207032 h 0.220704 0.21875 0.21875 v -0.2207032 -0.21875 -0.21875 h -0.21875 -0.21875 z m -3.072265,0.8769532 v 0.2207031 0.21875 h 0.21875 v -0.21875 -0.2207031 z m 3.951172,0.4394531 v 0.21875 h -0.220703 -0.21875 V 6.46875 h 0.21875 0.220703 0.21875 v -0.2207031 -0.21875 z m 0,1.0976562 v 0.21875 h 0.21875 v -0.21875 z m -2.195313,0.4394531 v 0.076172 c 0.05364,0.047767 0.105216,0.094943 0.154297,0.1425781 h 0.06445 v -0.21875 z m -5.267578,0.6582032 v 0.21875 h 0.21875 v -0.21875 z m 4.609375,1.3222656 c -0.06322,0.073407 -0.128221,0.14474 -0.193359,0.2148438 h 0.193359 z m -5.269531,0.4335938 v 0.2187502 0.220703 h 0.220703 V 10.199219 9.9804688 Z m 7.24414,0.4394532 h 0.220704 v 0.21875 h -0.220704 z m -3.511718,0.21289 v 0.0059 h 0.02148 c -0.0071,-0.0016 -0.01416,-0.0039 -0.02148,-0.0059 z m 1.097656,0.664063 v 0.220703 h 0.21875 v -0.220703 z m 1.755859,0.220703 h 0.220703 0.21875 0.21875 v 0.21875 0.21875 0.220703 h -0.21875 -0.21875 -0.220703 v -0.220703 -0.21875 z m -7.24414,0.21875 v 0.21875 0.220703 0.21875 0.220703 0.21875 0.21875 0.220704 h 0.220703 0.21875 0.21875 0.220703 0.21875 0.220703 0.21875 v -0.220704 -0.21875 -0.21875 -0.220703 -0.21875 -0.220703 -0.21875 h -0.21875 -0.220703 -0.21875 -0.220703 -0.21875 -0.21875 z m 7.464843,0 v 0.21875 h 0.21875 v -0.21875 z m -7.24414,0.21875 h 0.21875 0.21875 0.220703 0.21875 0.220703 v 0.220703 0.21875 0.220703 0.21875 0.21875 h -0.220703 -0.21875 -0.220703 -0.21875 -0.21875 v -0.21875 -0.21875 -0.220703 -0.21875 z m 0.21875,0.220703 v 0.21875 0.220703 0.21875 h 0.21875 0.220703 0.21875 v -0.21875 -0.220703 -0.21875 h -0.21875 -0.220703 z m 7.02539,0.21875 h 0.21875 v 0.220703 h -0.21875 z m 0.21875,0.439453 h 0.21875 v 0.21875 h -0.21875 z"
         transform="translate(20.746158,0.81004979)" />
    </g>
  </g>
</svg>
